<?xml version="1.0" encoding="utf-8"?>
<!-- Generator: Adobe Illustrator 18.1.1, SVG Export Plug-In . SVG Version: 6.00 Build 0)  -->
<svg version="1.1" id="Layer_1" xmlns="http://www.w3.org/2000/svg" xmlns:xlink="http://www.w3.org/1999/xlink" x="0px" y="0px"
	 viewBox="0 0 99.9 110" enable-background="new 0 0 99.9 110" xml:space="preserve">
<g>
	<g>
		<path fill="#005F87" d="M61.5,62.6c-1.7,0-1.3-0.6-0.9-1.1C73.7,49,87.8,31.1,99.9,0c-9.6,17.4-27.7,40.5-46.6,46.9
			c0.1,1.7,0,8.3-4.5,15.3C31.6,59.9,29.2,63,26,68.7c12.4-2.7,13.1,1.2,13.1,2.6c0,1.4-0.2,4.2-13,6.7C21.8,90,15.4,99,0,110
			c27.6-11.3,43.9-28.8,55.2-39.3c1.6-0.4,14.1,4,17.3-10.5C71.2,63.1,66,62.6,61.5,62.6z"/>
	</g>
</g>
</svg>
