<?xml version="1.0" encoding="utf-8"?>
<!-- Generator: Adobe Illustrator 18.1.1, SVG Export Plug-In . SVG Version: 6.00 Build 0)  -->
<svg version="1.1" id="Layer_1" xmlns="http://www.w3.org/2000/svg" xmlns:xlink="http://www.w3.org/1999/xlink" x="0px" y="0px"
	 viewBox="0 0 249 110" enable-background="new 0 0 249 110" xml:space="preserve">
<g>
	<g>
		<linearGradient id="SVGID_1_" gradientUnits="userSpaceOnUse" x1="124.4999" y1="-1.104127e-009" x2="124.4999" y2="110">
			<stop  offset="0" style="stop-color:#00B4FF"/>
			<stop  offset="1" style="stop-color:#0073A3"/>
		</linearGradient>
		<path fill="url(#SVGID_1_)" d="M61.5,62.6c-1.7,0-1.3-0.6-0.9-1.1C73.7,49,87.8,31.1,99.9,0c-9.6,17.4-27.7,40.5-46.6,46.9
			c0.1,1.7,0,8.3-4.5,15.3C31.6,59.9,29.2,63,26,68.7c12.4-2.7,13.1,1.2,13.1,2.6c0,1.4-0.2,4.2-13,6.7C21.8,90,15.4,99,0,110
			c27.6-11.3,43.9-28.8,55.2-39.3c1.6-0.4,14.1,4,17.3-10.5C71.2,63.1,66,62.6,61.5,62.6z M103.1,46.4c-1.1-1.1-2.5-1.9-4.1-2.4
			c-1.6-0.5-3.4-0.7-5.3-0.7h-11v47.3h9.1V73.3H94c4.5,0,7.7-1.3,9.7-4c2-2.7,3-6.5,3-11.3c0-2.8-0.3-5.2-0.9-7
			C105.2,49,104.3,47.5,103.1,46.4z M97.6,61.2c-0.3,0.9-0.6,1.5-1.1,2c-0.4,0.5-0.9,0.8-1.5,1c-0.6,0.2-1.1,0.2-1.7,0.2h-1.5V52.1
			h1.7c1.4,0,2.5,0.4,3.3,1.3c0.8,0.9,1.2,2.3,1.2,4.4C98,59.2,97.9,60.4,97.6,61.2z M123.4,81.1c-0.4,0.4-0.9,0.7-1.4,0.7
			c-1,0-1.6-0.5-1.8-1.6c-0.1-0.5-0.2-1.3-0.2-2.3c0-1,0-2.1,0-3.2h13.7v-9c0-3.8-1-6.7-3.1-8.6c-2-2-4.9-2.9-8.4-2.9
			c-2.9,0-5.2,0.6-6.9,1.8c-1.8,1.2-3,2.8-3.7,4.7c-0.2,0.6-0.4,1.4-0.6,2.4c-0.2,0.9-0.3,2-0.4,3.1c-0.1,1.1-0.2,2.2-0.2,3.4
			c0,1.2-0.1,2.3-0.1,3.4c0,0.9,0,1.8,0,2.8c0,1,0.1,2,0.1,2.9c0,1,0.1,1.9,0.2,2.8c0.1,0.9,0.2,1.6,0.4,2.2c0.2,1,0.6,1.9,1.1,2.8
			c0.5,0.9,1.2,1.7,2.1,2.4c0.9,0.7,2,1.3,3.3,1.7c1.3,0.4,2.8,0.6,4.6,0.6c3.5,0,6.3-1,8.3-2.9c2-1.9,3.1-4.6,3.3-7.9l-9.6-1.5
			C124.1,79.9,123.9,80.6,123.4,81.1z M120.3,66.1c0-0.7,0.1-1.1,0.2-1.4c0.3-0.9,0.9-1.4,1.7-1.4c0.7,0,1.1,0.2,1.4,0.7
			c0.3,0.5,0.4,1,0.4,1.5v3.1h-3.9C120.2,67.6,120.3,66.7,120.3,66.1z M160.7,74.6c-0.8-1.3-1.9-2.1-3.4-2.6v-0.3
			c1.2-0.4,2.2-1.2,3-2.4c0.8-1.1,1.4-2.6,1.8-4.3l2.1-10.5h-9.1l-1.6,8.5c-0.2,1.2-0.5,2.2-0.8,2.8c-0.3,0.7-0.6,1.2-0.9,1.6
			c-0.3,0.4-0.7,0.6-1.1,0.7c-0.4,0.1-0.8,0.1-1.2,0.1h-0.8V54.6h-9.7v36h9.7V76.6h1.1c0.6,0,1.1,0.1,1.6,0.2
			c0.4,0.1,0.8,0.4,1.1,0.8c0.3,0.4,0.5,0.9,0.8,1.7c0.2,0.7,0.4,1.7,0.6,2.9l1.4,8.5h9.6L162.4,79
			C162.1,77.3,161.5,75.8,160.7,74.6z M180.7,54.1c-3.3,0-5.9,0.8-7.9,2.5c-2,1.7-3.4,4-4.1,6.9l8.7,2.8c0.2-1.3,0.6-2.1,1.2-2.4
			c0.5-0.4,1-0.5,1.5-0.5c1.6,0,2.5,0.8,2.5,2.3v3.1H179c-2,0-3.7,0.3-5.2,0.9c-1.5,0.6-2.6,1.4-3.5,2.4c-0.9,1-1.6,2.2-2,3.5
			c-0.4,1.3-0.6,2.7-0.6,4.2c0,1.7,0.1,3.2,0.4,4.6c0.3,1.4,0.7,2.6,1.4,3.6c0.7,1,1.6,1.8,2.8,2.3c1.1,0.6,2.6,0.8,4.3,0.8
			c1,0,2.1-0.3,3.2-0.8c1.1-0.6,1.9-1.3,2.5-2.1l0.4,0.1v2.5h9.7v-25c0-4.1-0.9-7-2.8-8.8C187.5,55,184.6,54.1,180.7,54.1z
			 M182.5,78.7c0,0.9-0.2,1.7-0.7,2.3c-0.5,0.6-1.1,0.9-1.8,0.9c-0.7,0-1.3-0.2-1.9-0.6c-0.5-0.4-0.8-1.1-0.8-2c0-1.4,0.3-2.4,1-2.9
			c0.7-0.5,1.4-0.8,2.2-0.8h2V78.7z M227.4,60.2c0.4-1.5,0.7-3.4,0.7-5.5c0-3.6-0.9-6.4-2.6-8.6c-1.8-2.1-4.6-3.2-8.6-3.2
			c-1.6,0-3,0.3-4.4,0.8c-1.4,0.5-2.6,1.3-3.6,2.4c-1,1.1-1.9,2.5-2.5,4.1c-0.6,1.7-0.9,3.6-0.9,5.9l8.8,1.1c0-1.1,0.1-2.1,0.3-2.8
			c0.2-0.7,0.4-1.3,0.6-1.7c0.2-0.4,0.5-0.7,0.8-0.8c0.3-0.1,0.6-0.2,0.9-0.2c0.8,0,1.3,0.3,1.6,1c0.3,0.7,0.4,1.3,0.4,2
			c0,1.1-0.1,2.2-0.2,3.2c-0.2,1-0.5,2-1.1,3.1l-11.4,21.5v8.1h21.4v-8.8h-10.7l8.4-16.3C226.2,63.5,226.9,61.7,227.4,60.2z
			 M241,43.3l-6.9,5.5v10.1l6.1-4.8v36.5h8.9V43.3H241z"/>
	</g>
</g>
</svg>
